REGISTER_MUTATOR(vore, cvar("cl_vore"))
{
	MUTATOR_ONADD
	{
		VoreMain_OnAdd();
	}

	MUTATOR_ONREMOVE
	{
		VoreMain_OnRemove();
	}
}

MUTATOR_HOOKFUNCTION(vore, DrawCrosshair)
{
	if (MUTATOR_RETURNVALUE) return false;
	return VoreMain_DrawCrosshair_Draw();
}

MUTATOR_HOOKFUNCTION(vore, DrawScoreboard)
{
	if (MUTATOR_RETURNVALUE) return false;
	return VoreMain_DrawScoreboard_Draw();
}

MUTATOR_HOOKFUNCTION(vore, WantEventchase)
{
	if (MUTATOR_RETURNVALUE) return false;
	return VoreMain_WantEventchase_Want();
}

MUTATOR_HOOKFUNCTION(vore, HUD_Contents)
{
	return VoreMain_HUD_Contents_Forbid();
}

MUTATOR_HOOKFUNCTION(vore, HUD_WriteCvars)
{
	float fh = M_ARGV(0, float);
	VoreMain_HUD_WriteCvars(fh);
	return false;
}
