REGISTER_MUTATOR(macro, cvar("cl_macro"))
{
	MUTATOR_ONADD
	{
		MacroMain_OnAdd();
	}

	MUTATOR_ONREMOVE
	{
		MacroMain_OnRemove();
	}
}

MUTATOR_HOOKFUNCTION(macro, DrawScoreboard)
{
	if (MUTATOR_RETURNVALUE) return false;
	MacroMain_DrawScoreboard();
	return false;
}

MUTATOR_HOOKFUNCTION(macro, DrawViewModel)
{
	entity viewmodel = M_ARGV(0, entity);
	MacroMain_DrawViewModel(viewmodel);
}
